\relax 
\citation{flashchar}
\citation{ssdtradeoffs}
\citation{bg}
\citation{burst}
\citation{jaguar}
\citation{wiss}
\citation{minisql}
\citation{tc}
\citation{tce}
\citation{fb}
\bibstyle{}
\bibcite{flashchar}{1}
\bibcite{ssdtradeoffs}{2}
\bibcite{bg}{3}
\bibcite{burst}{4}
\bibcite{jaguar}{5}
\bibcite{wiss}{6}
\bibcite{minisql}{7}
\bibcite{tc}{8}
\bibcite{tce}{9}
\bibcite{fb}{10}
\global \c@l@stpage 2\relax \global \advance \c@l@stpage 0\relax 
